@startuml
actor User
[Third party application] as ThirdPartyApp
 
[PostgreSQL database] <<Database>> as PostgresDB
[Mail server] <<Mail server>> as Mail
 
package "Spring Boot Application" {
    [Controllers] <<Spring REST controllers>>
    [DataStoreService] <<Spring service>>
    [Repository] <<Spring repository>>
}
 
User --> Controllers
ThirdPartyApp --> Controllers
 
Controllers --> DataStoreService
DataStoreService --> Repository
 
/'Add extra hyphen (-) to put Mail
  add the same level as PostgresDB '/
DataStoreService ---> Mail
 
Repository --> PostgresDB
@enduml
